{
  "type": "service_account",
  "project_id": "attendance-143b5",
  "private_key_id": "d673480b332d3c90e7873974df786aad37565fc5",
  "private_key": "-----BEGIN PRIVATE KEY-----\nMIIEvQIBADANBgkqhkiG9w0BAQEFAASCBKcwggSjAgEAAoIBAQCPjjUW2DKgsW7Y\nnO144vSrkDYjSokZLB+ue20S40FUqi005lRXEQmhYj3RlW4iRN4XrNSKhwz7PCHE\n+Wpx9V2EB4ARIHSEkdgcXQf8z7h/zqYqQfR8CGzd/5kw7I6C6EJ+ul+KbeZ/NRtP\nxhiHZtHvWCUfl6jEvlB1LGDbr7Dq8G73henxSFogcHnoS7qIcpohj+pg4uXzF8l0\n5H3Vf1XK4+dwoCBi2CGca/d5GEOZzsbaAZzA47g1BmRVLMBytxUh1ucfdhux9PYB\nkq0Wcy+jUZf78tUQRk8xanh4pYXyp1ap2M6QwqgTH3KIa2oLxgnUaEZ+G6N0LCoo\nITIRvXBhAgMBAAECggEABYfxEpSRREzb0Img0m9bphPSCyttM3imTpejsuZpwypk\noCD2+00NMAAwEa/6SKSawkKi5IS6LsChDDTgKZx+njZ4BCjqBlzUbNjWhMKH2ThI\nAZEtm10LfUTypP57Se7LF5UElvm/p5NvLkRbl/VxpaExunkyW+S5hr83SuWWuWGL\n+dj1nx8uw0bsh4EMciXSMeSjgG8FR2fX5pdIswQGeZxrOygNWdCZzcfgxETGaYwG\nQW6xHkQwyn0VBGf5d+4WeVr5XWLljD+mTQ28IDYjf9vmU6vHRR/To1z/bVg+yjVw\nTuuh6iWZ6FUsyPmKQDSz0kAu2g2Wn4GTIRXlEnuNkQKBgQDJKZBhzT8Hk+J+hUdN\noS7eaYgfZn60JBtOU5Bl5nkDjG8FZlvEJmpQsnLFOzaSd0T4f2VA06L8LR7WmE/Z\nB7+aOMxhzwyReKN18HyVwpKuCSrUo6nZz1wEAtGhbGKSv5e10bsxh9DFlkT/bYSs\nWzjDNXzzZJ3mpcDYw1Bpf1oVcQKBgQC2sHTpKbo3hy5ttEF1A18Y83olMIPrM8sl\nUmreec8MksFRH6L4MLLfI4C8KmYoGe72bIKj+gvtRCIGrUuGtsBpxqIJCCzeVqyb\ngIjyaRIujniJFIMbCNcbBkiDxvej1vmm09NXXmWgq8xaCRT2MuKgHZdf+glgKE6z\njHECuk7R8QKBgQCL01pKwRHYwJClBRtE+I7NhmlZ+jKEILziOu+aBROExe69wCJ1\nO4aWxRNFyRzrvf+xA0xsPS+DPhG7dG+8Gciy+FwIeJTx4PsuFZVju7WdRz4ARCrh\n/WKmXxc7r0ztWEOp3DjT+uXBEeyv535bF6Vi+yD5Ra0ED572jPyt+Bmz4QKBgDeM\nSdAHjwaJRPW4ZFrG7qhwh8g9Cy997RvpBnOlB+6jxMH845mhfRHaAq+0GKHC2OT2\ns3ZWdj/rgokTMi7A7Jp8+hHS+YmVQyB5IarLherACShtIzwaIQWnkG75FZ0spXYz\nXERpgG8tLZKGxmfhqwTSWo+lQCqLtvpjDo2sxoCRAoGAIi5670VguSea5wUedoMI\n6H1/iV53vSS6d6ebx8uABZXxjKIvTSwCACvvl9BzUUm67AjI/I4DYsM856sS45Tu\ntQyuFx9OxSSZTQ9ZzjsJ4oNDvfSIGd5jIASlLXcNk0P3huqybIhbGyU7GghQgxig\nGdeAUjq0Yv7ONALpzX1+jsA=\n-----END PRIVATE KEY-----\n",
  "client_email": "firebase-adminsdk-u4f43@attendance-143b5.iam.gserviceaccount.com",
  "client_id": "111400722241552222609",
  "auth_uri": "https://accounts.google.com/o/oauth2/auth",
  "token_uri": "https://oauth2.googleapis.com/token",
  "auth_provider_x509_cert_url": "https://www.googleapis.com/oauth2/v1/certs",
  "client_x509_cert_url": "https://www.googleapis.com/robot/v1/metadata/x509/firebase-adminsdk-u4f43%40attendance-143b5.iam.gserviceaccount.com"
}
